<?xml version="1.0" encoding="UTF-8"?>
<svg width="48px" height="48px" viewBox="0 0 48 48" version="1.1" xmlns="http://www.w3.org/2000/svg" xmlns:xlink="http://www.w3.org/1999/xlink">
    <title>Artboard</title>
    <defs>
        <radialGradient cx="49.9999997%" cy="50.0085019%" fx="49.9999997%" fy="50.0085019%" r="110.729072%" gradientTransform="translate(0.500000,0.500085),scale(0.434783,1.000000),scale(1.000000,0.338538),translate(-0.500000,-0.500085)" id="radialGradient-1">
            <stop stop-color="#000000" stop-opacity="0.6" offset="0%"></stop>
            <stop stop-color="#000000" stop-opacity="0" offset="100%"></stop>
        </radialGradient>
        <linearGradient x1="50%" y1="1.74278846%" x2="50%" y2="100%" id="linearGradient-2">
            <stop stop-color="#F66151" offset="0%"></stop>
            <stop stop-color="#E01B24" offset="100%"></stop>
        </linearGradient>
        <linearGradient x1="50%" y1="100%" x2="50%" y2="9.76491615e-14%" id="linearGradient-3">
            <stop stop-color="#C01C28" offset="0%"></stop>
            <stop stop-color="#A51D2D" offset="100%"></stop>
        </linearGradient>
    </defs>
    <g id="Artboard" stroke="none" stroke-width="1" fill="none" fill-rule="evenodd">
        <ellipse id="Shadow" fill="url(#radialGradient-1)" fill-rule="nonzero" opacity="0.447056361" cx="24" cy="39.5" rx="11.5" ry="5"></ellipse>
        <path d="M24.5,6 C27.9590248,6 31.0925616,7.24375624 33.3600448,9.26105168 C35.6051227,11.258414 37,14.0159382 37,17.0656164 C37,18.1728943 36.8162631,19.2419928 36.4753124,20.2476286 C35.9911855,21.6513063 35.6085144,22.6346003 35.3264355,23.1962936 C33.5907637,26.6524734 32.0317245,29.0448918 30.9079163,30.7699226 C30.7821117,30.963031 30.6617117,31.1478447 30.5470708,31.3249093 C29.2152171,33.3819764 27.1033672,36.1714123 24.2129233,39.6937366 C21.6479701,36.3078086 19.6935876,33.5217709 18.350708,31.335002 C18.1773965,31.0527785 17.9890088,30.7503545 17.787828,30.4274012 C16.6861109,28.6588274 15.1968414,26.2690394 13.7039273,23.2018598 C13.5045883,22.7923195 13.2764465,22.2091052 13.0175878,21.4530449 C12.3546238,20.0679367 12,18.6036357 12,17.0656164 C12,14.0159382 13.3948773,11.258414 15.6399552,9.26105168 C17.9074384,7.24375624 21.0409753,6 24.5,6 Z" id="Pin-Shape" fill="url(#linearGradient-2)" fill-rule="nonzero"></path>
        <path d="M24.5,5.5 C28.0898509,5.5 31.3398509,6.7945257 33.6923881,8.8874906 C36.0449254,10.9804555 37.5,13.8718596 37.5,17.0656164 C37.5,18.2287565 37.3069927,19.351791 36.9479885,20.4106541 C36.4536521,21.843933 36.0612622,22.8471888 35.7732564,23.4206843 C34.0265083,26.8989195 32.4578414,29.3068026 31.3268562,31.04285 C31.2010195,31.2360076 31.0810334,31.420186 30.9667804,31.5966514 C29.5668643,33.758842 27.3104574,36.7266248 24.1975596,40.5000001 L24.197,40.5 C21.5567139,37.0342518 19.5314685,34.1726016 18.1218235,31.9150494 L17.9246334,31.5966515 C17.7521573,31.3157883 17.5647019,31.014861 17.3645376,30.6935396 C16.2548126,28.9121106 14.7566279,26.5070928 13.2543543,23.4206843 C13.0508488,23.002584 12.8172945,22.409562 12.5535512,21.6416128 C11.8673387,20.1986902 11.5,18.6703177 11.5,17.0656164 C11.5,13.8718596 12.9550746,10.9804555 15.3076118,8.8874906 C17.6601491,6.79452571 20.9101491,5.5 24.5,5.5 L24.5,5.5 Z" id="Pin-Shape" stroke="#C01C28"></path>
        <ellipse id="Pin-Oval-Highlight" fill-opacity="0.2" fill="#FFFFFF" fill-rule="nonzero" cx="24.5" cy="19" rx="6" ry="5.5"></ellipse>
        <ellipse id="Pin-Oval" fill="url(#linearGradient-3)" fill-rule="nonzero" cx="24.5" cy="18" rx="6" ry="5.5"></ellipse>
        <path d="M24.5,12.5 C27.8137085,12.5 30.5,15.0694215 30.5,18.2389637 C30.5,18.3265556 30.4979484,18.4136892 30.4938887,18.5003319 C30.3516237,15.4516265 27.722486,13.021724 24.5,13.021724 C21.2775139,13.021724 18.6483763,15.4516265 18.5060643,18.5003319 C18.5020516,18.4136892 18.5,18.3265556 18.5,18.2389637 C18.5,15.0694215 21.1862915,12.5 24.5,12.5 Z" id="Pin-Oval-Inset-2" fill-opacity="0.14" fill="#000000" fill-rule="nonzero"></path>
        <path d="M24.5,12.5 C27.8137085,12.5 30.5,14.9624339 30.5,18 C30.5,18.1689243 30.4916922,18.3360699 30.4754307,18.5011122 C30.1998924,15.6966915 27.6297997,13.5 24.5,13.5 C21.3702003,13.5 18.8001076,15.6966915 18.5244708,18.499888 C18.5083078,18.3360699 18.5,18.1689243 18.5,18 C18.5,14.9624339 21.1862915,12.5 24.5,12.5 Z" id="Pin-Oval-Inset-1" fill-opacity="0.07" fill="#000000" fill-rule="nonzero"></path>
    </g>
</svg>